﻿[
  {
    "fieldName": "מספר סוכן",
    "typeL": "(5)9"
  },
  {
    "fieldName": "מספר זהות",
    "typeL": "(9)9",
    "refField": "IdNumber"
  },
  {
    "fieldName": "שם מבוטח",
    "typeL": "(40)X",
    "refField": "LastName"
  },
  {
    "fieldName": "כתובת",
    "typeL": "(24)X",
    "refField": "Street"
  },
  {
    "fieldName": "ישוב",
    "typeL": "(16)X",
    "refField": "City"
  },
  {
    "fieldName": "מיקוד",
    "typeL": "(5)9",
    "refField": "ZipCode"
  },
  {
    "fieldName": "טלפון",
    "typeL": "(12)X",
    "refField": "PhoneHome"
  },
  {
    "fieldName": "תאריך לידה",
    "typeL": "(6)9",
    "refField": "BirthDate"
  },
  {
    "fieldName": "מין",
    "typeL": "X"
  },
  {
    "fieldName": "מסלקה",
    "typeL": "(5)9"
  },
  {
    "fieldName": "חשבון בנק",
    "typeL": "(10)9"
  },
  {
    "fieldName": "יום גביה",
    "typeL": 99
  },
  {
    "fieldName": "סימן כספים במעבר",
    "typeL": "X"
  },
  {
    "fieldName": "כספים במעבר",
    "typeL": "(6)9"
  },
  {
    "fieldName": "מצב משפחתי",
    "typeL": "X",
    "refField": "MaritalStatus"
  }
]