[
  {
    "fieldName": "מספר סוכן",
    "typeL": "(5)9"
  },
  {
    "fieldName": "מספר פוליסה",
    "typeL": "(8)9",
    "refField": "HealthPolicyID"
  },
  {
    "fieldName": "קוד מבוטח",
    "typeL": 99
  },
  {
    "fieldName": "ת.ז. מבוטח",
    "typeL": "(9)9"
  },
  {
    "fieldName": "מספר כיסוי",
    "typeL": "(4)9",
    "refField": "Comments"
  },
  {
    "fieldName": "סטטוס ראשי",
    "typeL": 9,
    "refField": "Status"
  },
  {
    "fieldName": "תאריך תחילת ביטוח",
    "typeL": "YYMMDD",
    "refField": "StartDate"
  },
  {
    "fieldName": "גיל ביטוחי",
    "typeL": 99,

  },
  {
    "fieldName": "גיל תום ביטוח",
    "typeL": 99,
    "refField": "Period"

  },
  {
    "fieldName": "גיל תום תשלום",
    "typeL": 99
  },
  {
    "fieldName": "תאריך גמר ביטוח",
    "typeL": "YYMMDD",
    "refField": "EndDate"
  },
  {
    "fieldName": "תאריך גמר תשלום",
    "typeL": "YYMMDD"
  },
  {
    "fieldName": "סכום ביטוח",
    "typeL": "(2)9V(9)9",
    "refField": "InsuranceAmount"
  },
  {
    "fieldName": "פרמיה שנתית",
    "typeL": "(2)9V(7)9",
    "refField": "IndexedPremium"
  },
  {
    "fieldName": "קוד בעלות",
    "typeL": 9
  },
  {
    "fieldName": "גורם פוליסה",
    "typeL": "(2)9V(4)9"
  },
  {
    "fieldName": "פרומיל יסודי",
    "typeL": "(2)9V(5)9"
  },
  {
    "fieldName": "אחוז תוספת רפואית",
    "typeL": 999
  },
  {
    "fieldName": "פרומיל תוספת רפואית",
    "typeL": "(2)9V(5)9",
    "refField": "MedicalAddition"

  },
  {
    "fieldName": "קוד בעלות תוספת רפואית",
    "typeL": 9
  },
  {
    "fieldName": "אחוז תוספת מקצועית",
    "typeL": 999
  },
  {
    "fieldName": "פרומיל תוספת מקצועית",
    "typeL": "(2)9V(5)9",
    "refField": "ProfessionalAddition"
  },
  {
    "fieldName": "קוד בעלות תוספת מקצועית",
    "typeL": 9
  },
  {
    "fieldName": "פרומיל תוספת זמנית",
    "typeL": "(2)9V(5)9"
  },
  {
    "fieldName": "אחוז תוספת זמנית",
    "typeL": 999
  },
  {
    "fieldName": "קוד בעלות תוספת זמנית",
    "typeL": 9
  },
  {
    "fieldName": "תקופה תוספת זמנית",
    "typeL": 99
  },
  {
    "fieldName": "FILLER",
    "typeL": "(28)X"
  }
]