﻿[
  {
    "fieldName": "מספר סוכן",
    "typeL": "(5)9"
  },
  {
    "fieldName": "מספר מעסיק",
    "typeL": "(10)9",
    "refField": "PolicyOwnerNumber"
  },
  {
    "fieldName": "שם מבוטח",
    "typeL": "(40)X",
    "refField": "PolicyOwnerName"
  },
  {
    "fieldName": "כתובת",
    "typeL": "(24)X",
    "refField": "Street"
  },
  {
    "fieldName": "ישוב",
    "typeL": "(16)X",
    "refField": "City"
  },
  {
    "fieldName": "מיקוד",
    "typeL": "(5)9",
    "refField": "ZipCode"
  },
  {
    "fieldName": "טלפון",
    "typeL": "(12)X",
    "refField": "Phone"
  },
  {
    "fieldName": "מסלקה",
    "typeL": "(5)9"
  },
  {
    "fieldName": "מספר חשבון",
    "typeL": "(10)9"
  },
  {
    "fieldName": "יום גביה",
    "typeL": 99
  },
  {
    "fieldName": "סימן כספים במעבר",
    "typeL": "X"
  },
  {
    "fieldName": "כספים במעבר",
    "typeL": "(6)9"
  },
  {
    "fieldName": "FILLER",
    "typeL": "(214)X"
  }
]