﻿[
  {
    "fieldName": "קידומת לרשומה",
    "typeL": "9(36)"
  },
  {
    "fieldName": "סוג רשומה",
    "typeL": "9(2)"
  },
  {
    "fieldName": "סוג גביה",
    "typeL": "9(2)"
  },
  {
    "fieldName": "אופן גביה",
    "typeL": "9(2)",
    "refField": "PaymentMethod"
  },
  {
    "fieldName": "סוג הצמדה",
    "typeL": "9(2)"
  },
  {
    "fieldName": "קוד מטבע",
    "typeL": "9(2)",
    "refField": "Currency"

  },
  {
    "fieldName": "שער מטבע/מדד",
    "typeL": "9(8)V9(4)"
  },
  {
    "fieldName": "מספר תשלומים",
    "typeL": "9(2)"
  },
  {
    "fieldName": "תאריך גביה ראשון",
    "typeL": "YYMMDD",
    "refField": "PaymentDate"
  },
  {
    "fieldName": "יום גביה בחודש",
    "typeL": "9(2)"
  },
  {
    "fieldName": "קוד בנק",
    "typeL": "9(2)",
    "refField": "BankName"
  },
  {
    "fieldName": "קוד סניף",
    "typeL": "9(3)",
    "refField": "BankBranchNumber"
  },
  {
    "fieldName": "מס' חשבון",
    "typeL": "9(10)"
  },
  {
    "fieldName": "מס' התחייבות",
    "typeL": "9(10)"
  },
  {
    "fieldName": "שם בעל חשבון",
    "typeL": "X(22)"
  },
  {
    "fieldName": "מס' מפעל לגביה מרכזת",
    "typeL": "9(9)"
  },
  {
    "fieldName": "אחוז דמי אשראי",
    "typeL": "9(2)V9(2)",
    "refField": "Credit"
  },
  {
    "fieldName": "קוד דמי אשראי",
    "typeL": "9(2)"
  },
  {
    "fieldName": "ישות גובה",
    "typeL": "9(1)"
  },
  {
    "fieldName": "תוקף כרטיס אשראי",
    "typeL": "YYYYMM"
  },
  {
    "fieldName": "ת.ז. בעל חשבון כרטיס אשראי",
    "typeL": "9(9)"
  },
  {
    "fieldName": "סוג אשראי",
    "typeL": "9(2)"
  }
]