﻿[
  {
    "fieldName": "קוד סכום",
    "typeL": "9(2)",
    "refField": "CodeSum"
  },
  {
    "fieldName": "סימן סכום",
    "typeL": "9(1)",
    "refField": "MarkSum"
  },
  {
    "fieldName": "סכום",
    "typeL": "9(11)V9(2)",
    "refField": "TotalSum"
  }
]