﻿[
  {
    "fieldName": "קידומת לרשומה",
    "typeL": "9(36)"
  },
  {
    "fieldName": "סוג רשומה",
    "typeL": "9(2)"
  },
  {
    "fieldName": "מס' הצעה במחשב הסוכן",
    "typeL": "9(9)"
  },
  {
    "fieldName": "תאריך הצעה",
    "typeL": "YYMMDD"
  },
  {
    "fieldName": "מס' חברה של פוליסה קודמת",
    "typeL": "9(5)"
  },
  {
    "fieldName": "מס' פוליסה קודמת",
    "typeL": "9(13)"
  },
  {
    "fieldName": "קוד ארוע",
    "typeL": "9(2)"
  },
  {
    "fieldName": "תאריך ארוע",
    "typeL": "YYMMDD"
  },
  {
    "fieldName": "תאריך תחילת ביטוח",
    "typeL": "YYMMDD",
    "refField": "StartDate"
  },
  {
    "fieldName": "תאריך תום ביטוח",
    "typeL": "YYMMDD",
    "refField": "EndDate"
  },
  {
    "fieldName": "תאריך תחילת תוספת",
    "typeL": "YYMMDD"
  },
  {
    "fieldName": "תאריך תום תוספת",
    "typeL": "YYMMDD"
  },
  {
    "fieldName": "קוד מכין מסמך (מס' מקישה)",
    "typeL": "9(5)"
  },
  {
    "fieldName": "קוד חישוב",
    "typeL": "9(2)"
  },
  {
    "fieldName": "חודש בורדרו",
    "typeL": "YYMM"
  },
  {
    "fieldName": "קוד משלוח הודעות",
    "typeL": "9(2)"
  },
  {
    "fieldName": "קוד הודעות חידוש",
    "typeL": "9(2)"
  },
  {
    "fieldName": "קוד הצמדת סכומי ביטוח",
    "typeL": "9(2)"
  },
  {
    "fieldName": "קוד מטבע",
    "typeL": "9(2)"
  },
  {
    "fieldName": "ענף",
    "typeL": "9(3)"
  },
  {
    "fieldName": "סניף",
    "typeL": "9(2)"
  },
  {
    "fieldName": "קוד תעריף",
    "typeL": "9(1)"
  },
  {
    "fieldName": "תוספת ימים",
    "typeL": "9(3)"
  },
  {
    "fieldName": "סימן",
    "typeL": "9(1)"
  },
  {
    "fieldName": "מס' מקישה פנימי",
    "typeL": "9(5)"
  }
]