﻿{
  "346": "אור 1",
  "315": "שלוה מ",
  "1276": "מגדל ל",
  "952": "אור 1",
  "947": "נכות מ",
  "948": "מוות מ",
  "951": "תשלום",
  "949": "מזור 4",
  "877": "מזור 4",
  "323": "שלווה מ",
  "781": "דואגים",
  "415": "ביטוח",
  "720": "נכות מ",
  "760": "מוות מ",
  "966": "שלווה מ",
  "1401": "ריסק",
  "1565": "מזור 1",
  "2056": "בריאות",
  "2044": "תנאיים",
  "2048": "ניתוחי",
  "1598": "ניתוחי",
  "1617": "נספח ת",
  "1612": "השתלות",
  "1644": "נספח ל",
  "2043": "תנאים",
  "2047": "ניתוחי",
  "1594": "ניתוחי",
  "1613": "נספח ת",
  "1608": "השתלות",
  "1639": "נספח ל",
  "748": "מגדלור",
  "751": "מגדלור",
  "749": "מגדלור",
  "753": "מגדלור",
  "768": "מגדל כ",
  "778": "מגדל כ",
  "806": "מגדל כ",
  "174": "מגדל כ",
  "160": "עוז",
  "175": "יותר -ר",
  "170": "יותר -ר",
  "161": "יותר -ר",
  "506": "יותר -ר",
  "460": "נכות מ",
  "464": "אור 1",
  "159": "נספח ה",
  "1210": "נספח ה",
  "1211": "מגדלור",
  "1212": "מגדל-ק",
  "1213": "מגדל-ק"

}