﻿[
  {
    "fieldName": "קידומת לרשומה",
    "typeL": "9(36)"
  },
  {
    "fieldName": "סוג רשומה",
    "typeL": "9(2)"
  },
  {
    "fieldName": "קוד זיהוי",
    "typeL": "9(1)"
  },
  {
    "fieldName": "מספר זיהוי",
    "typeL": "9(9)",
    "refField": "IdNumber"
  },
  {
    "fieldName": "מס' לקוח במחשב הסוכן",
    "typeL": "9(9)"
  },
  {
    "fieldName": "שם לקוח",
    "typeL": "X(22)",
    "refField": "LastName"
  },
  {
    "fieldName": "מין",
    "typeL": "X(1)"
  },
  {
    "fieldName": "רחוב",
    "typeL": "X(17)",
    "refField": "Street"
  },
  {
    "fieldName": "מס' בית",
    "typeL": "X(5)",
    "refField": "HomeNumber"
  },
  {
    "fieldName": "ישוב",
    "typeL": "X(17)",
    "refField": "City"
  },
  {
    "fieldName": "מיקוד",
    "typeL": "9(5)",
    "refField": "ZipCode"
  },
  {
    "fieldName": "טלפון",
    "typeL": "X(10)",
    "refField": "PhoneHome"
  },
  {
    "fieldName": "תאריך לידה",
    "typeL": "YYMMDD",
    "refField": "BirthDate"
  },
  {
    "fieldName": "מצב משפחתי",
    "typeL": "9(2)",
    "refField": "MaritalStatus"
  },
  {
    "fieldName": "ת.ז. בן-זוג",
    "typeL": "9(9)"
  },
  {
    "fieldName": "שם פרטי בן-זוג",
    "typeL": "X(8)"
  },
  {
    "fieldName": "תאריך לידה בן-זוג",
    "typeL": "YYMMDD"
  },
  {
    "fieldName": "מספר ילדים",
    "typeL": "9(2)"
  }
]