﻿[
  {
    "fieldName": "קידומת לרשומה",
    "typeL": "9(35)"
  },
  {
    "fieldName": "סוג רשומה",
    "typeL": "9(2)"
  },
  {
    "fieldName": "מס' סעיף",
    "typeL": "9(6)"
  },
  {
    "fieldName": "מס' סידורי",
    "typeL": "9(2)"
  },
  {
    "fieldName": "אפיון סעיף",
    "typeL": "9(1)"
  },
  {
    "fieldName": "מלל כיסוי/סעיף",
    "typeL": "X(50)",
    "refField": "Comments"
  },
  {
    "fieldName": "סימן סכום ביטוח",
    "typeL": "9(1)",
    "refField": "CoverageAmountMark"

  },
  {
    "fieldName": "סכום ביטוח",
    "typeL": "9(11)V9(2)",
    "refField": "CoverageAmount"
  },
  {
    "fieldName": "סימן מיון",
    "typeL": "9(1)",
    "refField": "PorcentageMark"
  },
  {
    "fieldName": "מיון",
    "typeL": "9(2)V9(4)",
    "refField": "Porcentage"
  },
  {
    "fieldName": "סימן פרמיה שנתית",
    "typeL": "9(1)",
    "refField": "premiumMark"
  },
  {
    "fieldName": "פרמיה שנתית",
    "typeL": "9(11)V9(2)",
    "refField": "premium"

  },
  {
    "fieldName": "סימן פרמיה לתשלום",
    "typeL": "9(1)"
  },
  {
    "fieldName": "פרמיה לתשלום",
    "typeL": "9(11)V9(2)"
  },
  {
    "fieldName": "קוד סעיף",
    "typeL": "9(1)"
  }
]